#-------|-------------|-------|---------------|------------------|
#Type   | Server Group| Index |  Server IP    | Server UDP Port  |
#-------|-------------|-------|---------------|------------------|
7		       1	     205	 127.0.0.1		     30503